[gd_resource type="Environment" load_steps=2 format=2]

[sub_resource type="ProceduralSky" id=1]
sky_top_color = Color( 1, 1, 1, 1 )
sky_horizon_color = Color( 0.0392157, 0.933333, 1, 1 )
ground_bottom_color = Color( 0.360784, 0.917647, 0.945098, 1 )
ground_horizon_color = Color( 0.0313726, 0.956863, 0.956863, 1 )

[resource]
background_mode = 2
background_sky = SubResource( 1 )
ambient_light_color = Color( 1, 1, 1, 1 )
